{"success":true,"data":{"sessionHistory":[{"parsedData":null,"_id":"69bfe8a684175389a0bf6d45","score":0,"createdAt":"2026-03-22T13:03:34.658Z","completedAt":"2026-03-22T13:03:41.930Z"},{"parsedData":null,"_id":"69bfe48daf8371ddc6d066dd","score":0,"createdAt":"2026-03-22T12:46:05.705Z","completedAt":"2026-03-22T12:49:15.951Z"},{"parsedData":{"developerTitle":"Machine Learning Engineer","primaryStack":"AWS","skills":["C++","SQL","MongoDB","Docker","AWS","GitHub"],"projects":[{"name":"MediScan – AI Radiology Assistant","languages":["AWS"]}],"education":[{"degree":"M.Tech – Artificial Intelligence","school":"Extracted"},{"degree":"IIT Hyderabad","school":"Extracted"}]},"_id":"69bce743b0457e83efdc7aa4","score":0,"createdAt":"2026-03-20T06:20:51.544Z","completedAt":"2026-03-20T06:25:25.120Z"},{"parsedData":{"developerTitle":"India \nPROFILE \nI am MERN stack developer","primaryStack":"GitHub","skills":["JavaScript","React","Node.js","MongoDB","Express","HTML","CSS","JWT","Socket.io","Tailwind","Postman","Git","GitHub"],"projects":[{"name":"Codec – Real-Time Collaborative Code Editor","languages":[]}],"education":[{"degree":"• B. Tech Computer Science & Engineering (2022 – 2","school":"Extracted"},{"degree":"(2022) [51 %] Lal Bahadur Shastri Vidhyalaya, Baro","school":"Extracted"}]},"_id":"69ba40703fc79ebed41d7992","score":2.8,"createdAt":"2026-03-18T06:04:32.126Z"},{"parsedData":{"developerTitle":"India \nPROFILE \nI am a Flutter App Developer","primaryStack":"Flutter","skills":["Flutter","Dart","Android","iOS","Firebase","JWT","Postman","Git","GitHub"],"projects":[{"name":"Personal Project","languages":["Flutter"]}],"education":[{"degree":"• B. Tech Computer Science & Engineering (2022 – 2","school":"Extracted"},{"degree":"(2022) [51 %] Lal Bahadur Shastri Vidhyalaya, Baro","school":"Extracted"}]},"_id":"69ba3deb83195d164dce6f52","score":4.4,"createdAt":"2026-03-18T05:53:47.456Z"}],"categoryStats":[{"_id":"Frontend","topScore":4,"count":10},{"_id":"Fullstack","topScore":0,"count":5}],"totalSessions":6,"totalQuestionsAnswered":12,"totalSkippedQuestions":18,"totalPages":2,"currentPage":1,"highestScore":8,"avgOverallScore":2.533333333333333,"streak":1}}